EESchema Schematic File Version 4
LIBS:elektronikaĵoj-cache
EELAYER 26 0
EELAYER END
$Descr A4 11693 8268
encoding utf-8
Sheet 4 5
Title ""
Date ""
Rev ""
Comp ""
Comment1 ""
Comment2 ""
Comment3 ""
Comment4 ""
$EndDescr
$Comp
L Interface_UART:MAX485E U13
U 1 1 5F7E4C52
P 6150 4900
F 0 "U13" H 6350 5500 50  0000 C CNN
F 1 "MAX485E" H 6450 5400 50  0000 C CNN
F 2 "" H 6150 4200 50  0001 C CNN
F 3 "https://datasheets.maximintegrated.com/en/ds/MAX1487E-MAX491E.pdf" H 6150 4950 50  0001 C CNN
	1    6150 4900
	1    0    0    -1  
$EndComp
$Comp
L Isolator:PC817 U10
U 1 1 5F7E4D1B
P 4050 3650
F 0 "U10" H 4050 3975 50  0000 C CNN
F 1 "PC817" H 4050 3884 50  0000 C CNN
F 2 "Package_DIP:DIP-4_W7.62mm" H 3850 3450 50  0001 L CIN
F 3 "http://www.soselectronic.cz/a_info/resource/d/pc817.pdf" H 4050 3650 50  0001 L CNN
	1    4050 3650
	1    0    0    -1  
$EndComp
$Comp
L Isolator:PC817 U11
U 1 1 5F7E4DF3
P 4050 4600
F 0 "U11" H 4050 4925 50  0000 C CNN
F 1 "PC817" H 4050 4834 50  0000 C CNN
F 2 "Package_DIP:DIP-4_W7.62mm" H 3850 4400 50  0001 L CIN
F 3 "http://www.soselectronic.cz/a_info/resource/d/pc817.pdf" H 4050 4600 50  0001 L CNN
	1    4050 4600
	1    0    0    -1  
$EndComp
$Comp
L Isolator:PC817 U12
U 1 1 5F7E4E6F
P 4050 5550
F 0 "U12" H 4050 5875 50  0000 C CNN
F 1 "PC817" H 4050 5784 50  0000 C CNN
F 2 "Package_DIP:DIP-4_W7.62mm" H 3850 5350 50  0001 L CIN
F 3 "http://www.soselectronic.cz/a_info/resource/d/pc817.pdf" H 4050 5550 50  0001 L CNN
	1    4050 5550
	1    0    0    -1  
$EndComp
$Comp
L Isolator:PC817 U9
U 1 1 5F7E4F7F
P 4050 2350
F 0 "U9" H 4050 2675 50  0000 C CNN
F 1 "PC817" H 4050 2584 50  0000 C CNN
F 2 "Package_DIP:DIP-4_W7.62mm" H 3850 2150 50  0001 L CIN
F 3 "http://www.soselectronic.cz/a_info/resource/d/pc817.pdf" H 4050 2350 50  0001 L CNN
	1    4050 2350
	-1   0    0    -1  
$EndComp
Wire Wire Line
	2100 1650 2600 1650
$Comp
L Device:R R25
U 1 1 5F7E8879
P 4650 4000
F 0 "R25" H 4720 4046 50  0000 L CNN
F 1 "220" H 4720 3955 50  0000 L CNN
F 2 "" V 4580 4000 50  0001 C CNN
F 3 "~" H 4650 4000 50  0001 C CNN
	1    4650 4000
	1    0    0    -1  
$EndComp
$Comp
L Device:R R27
U 1 1 5F7E8D6C
P 4650 5900
F 0 "R27" H 4720 5946 50  0000 L CNN
F 1 "220" H 4720 5855 50  0000 L CNN
F 2 "" V 4580 5900 50  0001 C CNN
F 3 "~" H 4650 5900 50  0001 C CNN
	1    4650 5900
	1    0    0    -1  
$EndComp
Wire Wire Line
	4350 5450 4400 5450
Wire Wire Line
	4400 3550 4350 3550
Wire Wire Line
	4350 4500 4400 4500
Connection ~ 4400 4500
Wire Wire Line
	4400 4500 4400 3550
$Comp
L Device:R R24
U 1 1 5F7EA002
P 4500 2700
F 0 "R24" H 4570 2746 50  0000 L CNN
F 1 "220" H 4570 2655 50  0000 L CNN
F 2 "" V 4430 2700 50  0001 C CNN
F 3 "~" H 4500 2700 50  0001 C CNN
	1    4500 2700
	1    0    0    -1  
$EndComp
Wire Wire Line
	4650 4200 4500 4200
Wire Wire Line
	4350 3750 4650 3750
Wire Wire Line
	4650 3850 4650 3750
Wire Wire Line
	4650 4800 4650 4700
Wire Wire Line
	4500 2450 4500 2550
Wire Wire Line
	4350 2450 4500 2450
Connection ~ 4400 3550
Wire Wire Line
	6150 3550 6150 4400
Wire Wire Line
	4500 6150 4650 6150
Wire Wire Line
	4650 4200 4650 4150
Wire Wire Line
	4350 5650 4650 5650
Wire Wire Line
	4650 6150 4650 6050
Wire Wire Line
	4500 2850 4500 2900
Wire Wire Line
	6150 3550 6850 3550
Connection ~ 6150 3550
$Comp
L Connector:6P6C J2
U 1 1 5F804EE0
P 9700 4900
F 0 "J2" H 9370 4904 50  0000 R CNN
F 1 "6P6C" H 9370 4995 50  0000 R CNN
F 2 "" V 9700 4925 50  0001 C CNN
F 3 "~" V 9700 4925 50  0001 C CNN
	1    9700 4900
	-1   0    0    1   
$EndComp
$Comp
L Device:CP C7
U 1 1 5F805A9E
P 7300 3800
F 0 "C7" H 7418 3846 50  0000 L CNN
F 1 "100uF 16V" H 7418 3755 50  0000 L CNN
F 2 "" H 7338 3650 50  0001 C CNN
F 3 "~" H 7300 3800 50  0001 C CNN
	1    7300 3800
	1    0    0    -1  
$EndComp
$Comp
L Diode:1.5KExxA D5
U 1 1 5F806142
P 7950 3800
F 0 "D5" V 7996 3721 50  0000 R CNN
F 1 "1.5KE6V8A" V 7905 3721 50  0000 R CNN
F 2 "Diode_THT:D_DO-201AE_P15.24mm_Horizontal" H 7950 3600 50  0001 C CNN
F 3 "https://www.vishay.com/docs/88301/15ke.pdf" H 7900 3800 50  0001 C CNN
	1    7950 3800
	0    -1   1    0   
$EndComp
$Comp
L Device:C C6
U 1 1 5F8062E1
P 6850 3800
F 0 "C6" H 6965 3846 50  0000 L CNN
F 1 "1.0" H 6965 3755 50  0000 L CNN
F 2 "" H 6888 3650 50  0001 C CNN
F 3 "~" H 6850 3800 50  0001 C CNN
	1    6850 3800
	1    0    0    -1  
$EndComp
Wire Wire Line
	6850 3550 6850 3650
Connection ~ 6850 3550
Wire Wire Line
	7950 4050 7950 3950
Wire Wire Line
	7950 3650 7950 3550
Wire Wire Line
	6850 3550 7300 3550
Wire Wire Line
	7300 3650 7300 3550
Wire Wire Line
	7300 4050 7300 3950
Connection ~ 7300 4050
Wire Wire Line
	7300 4050 7950 4050
Wire Wire Line
	7950 3550 8050 3550
Wire Wire Line
	7300 3550 7950 3550
Connection ~ 7300 3550
Connection ~ 7950 3550
$Comp
L Device:Fuse F3
U 1 1 5F816D77
P 8200 3550
F 0 "F3" V 8003 3550 50  0000 C CNN
F 1 "250 mA" V 8094 3550 50  0000 C CNN
F 2 "" V 8130 3550 50  0001 C CNN
F 3 "~" H 8200 3550 50  0001 C CNN
	1    8200 3550
	0    1    1    0   
$EndComp
Text Label 8400 3550 0    50   ~ 0
5V_RS
Text Label 8150 6150 0    50   ~ 0
GND_RS
Wire Wire Line
	4400 4500 4400 5450
Wire Wire Line
	4650 4700 4350 4700
$Comp
L Transistor_BJT:2N3904 Q6
U 1 1 5F7F21C5
P 4600 3100
F 0 "Q6" H 4791 3146 50  0000 L CNN
F 1 "2N3904" H 4791 3055 50  0000 L CNN
F 2 "Package_TO_SOT_THT:TO-92_Inline" H 4800 3025 50  0001 L CIN
F 3 "https://www.fairchildsemi.com/datasheets/2N/2N3904.pdf" H 4600 3100 50  0001 L CNN
	1    4600 3100
	-1   0    0    -1  
$EndComp
Wire Wire Line
	4500 3300 4500 4200
Wire Wire Line
	4800 3100 4850 3100
Wire Wire Line
	4350 2250 5250 2250
Wire Wire Line
	5850 2250 5850 3550
Wire Wire Line
	4400 3550 5850 3550
Connection ~ 5850 3550
Wire Wire Line
	5850 3550 6150 3550
$Comp
L Device:R R28
U 1 1 5F7F9CFE
P 5000 3100
F 0 "R28" V 4793 3100 50  0000 C CNN
F 1 "4k7" V 4884 3100 50  0000 C CNN
F 2 "" V 4930 3100 50  0001 C CNN
F 3 "~" H 5000 3100 50  0001 C CNN
	1    5000 3100
	0    1    1    0   
$EndComp
Wire Wire Line
	5150 3100 5250 3100
$Comp
L Transistor_BJT:2N3904 Q3
U 1 1 5F81D0F1
P 3050 4050
F 0 "Q3" H 3241 4096 50  0000 L CNN
F 1 "2N3904" H 3241 4005 50  0000 L CNN
F 2 "Package_TO_SOT_THT:TO-92_Inline" H 3250 3975 50  0001 L CIN
F 3 "https://www.fairchildsemi.com/datasheets/2N/2N3904.pdf" H 3050 4050 50  0001 L CNN
	1    3050 4050
	1    0    0    -1  
$EndComp
$Comp
L Device:R R17
U 1 1 5F81D0F7
P 2500 4050
F 0 "R17" V 2293 4050 50  0000 C CNN
F 1 "4k7" V 2384 4050 50  0000 C CNN
F 2 "" V 2430 4050 50  0001 C CNN
F 3 "~" H 2500 4050 50  0001 C CNN
	1    2500 4050
	0    1    1    0   
$EndComp
Wire Wire Line
	2650 4050 2850 4050
Wire Wire Line
	2100 4050 2350 4050
$Comp
L Device:R R21
U 1 1 5F81E99A
P 3400 3750
F 0 "R21" V 3193 3750 50  0000 C CNN
F 1 "220" V 3284 3750 50  0000 C CNN
F 2 "" V 3330 3750 50  0001 C CNN
F 3 "~" H 3400 3750 50  0001 C CNN
	1    3400 3750
	0    1    1    0   
$EndComp
Wire Wire Line
	3150 3850 3150 3750
Wire Wire Line
	3150 3750 3250 3750
Wire Wire Line
	3150 4250 2750 4250
$Comp
L Transistor_BJT:2N3904 Q4
U 1 1 5F82DC3E
P 3050 5000
F 0 "Q4" H 3241 5046 50  0000 L CNN
F 1 "2N3904" H 3241 4955 50  0000 L CNN
F 2 "Package_TO_SOT_THT:TO-92_Inline" H 3250 4925 50  0001 L CIN
F 3 "https://www.fairchildsemi.com/datasheets/2N/2N3904.pdf" H 3050 5000 50  0001 L CNN
	1    3050 5000
	1    0    0    -1  
$EndComp
$Comp
L Device:R R18
U 1 1 5F82DC44
P 2500 5000
F 0 "R18" V 2293 5000 50  0000 C CNN
F 1 "4k7" V 2384 5000 50  0000 C CNN
F 2 "" V 2430 5000 50  0001 C CNN
F 3 "~" H 2500 5000 50  0001 C CNN
	1    2500 5000
	0    1    1    0   
$EndComp
Wire Wire Line
	2650 5000 2850 5000
Wire Wire Line
	2100 5000 2350 5000
$Comp
L Device:R R22
U 1 1 5F82DC4C
P 3400 4700
F 0 "R22" V 3193 4700 50  0000 C CNN
F 1 "220" V 3284 4700 50  0000 C CNN
F 2 "" V 3330 4700 50  0001 C CNN
F 3 "~" H 3400 4700 50  0001 C CNN
	1    3400 4700
	0    1    1    0   
$EndComp
Wire Wire Line
	3150 4800 3150 4700
Wire Wire Line
	3150 4700 3250 4700
$Comp
L Transistor_BJT:2N3904 Q5
U 1 1 5F83423E
P 3050 5950
F 0 "Q5" H 3241 5996 50  0000 L CNN
F 1 "2N3904" H 3241 5905 50  0000 L CNN
F 2 "Package_TO_SOT_THT:TO-92_Inline" H 3250 5875 50  0001 L CIN
F 3 "https://www.fairchildsemi.com/datasheets/2N/2N3904.pdf" H 3050 5950 50  0001 L CNN
	1    3050 5950
	1    0    0    -1  
$EndComp
$Comp
L Device:R R19
U 1 1 5F834244
P 2500 5950
F 0 "R19" V 2293 5950 50  0000 C CNN
F 1 "4k7" V 2384 5950 50  0000 C CNN
F 2 "" V 2430 5950 50  0001 C CNN
F 3 "~" H 2500 5950 50  0001 C CNN
	1    2500 5950
	0    1    1    0   
$EndComp
Wire Wire Line
	2650 5950 2850 5950
Wire Wire Line
	2100 5950 2350 5950
$Comp
L Device:R R23
U 1 1 5F83424C
P 3400 5650
F 0 "R23" V 3193 5650 50  0000 C CNN
F 1 "220" V 3284 5650 50  0000 C CNN
F 2 "" V 3330 5650 50  0001 C CNN
F 3 "~" H 3400 5650 50  0001 C CNN
	1    3400 5650
	0    1    1    0   
$EndComp
Wire Wire Line
	3150 5750 3150 5650
Wire Wire Line
	3150 5650 3250 5650
Wire Wire Line
	3150 6150 2750 6150
Connection ~ 4500 4200
Wire Wire Line
	4650 5200 4650 5100
Wire Wire Line
	4500 4200 4500 5200
Wire Wire Line
	4500 5200 4500 6150
Connection ~ 4500 5200
Wire Wire Line
	4500 5200 4650 5200
$Comp
L Device:R R26
U 1 1 5F7E8B0A
P 4650 4950
F 0 "R26" H 4720 4996 50  0000 L CNN
F 1 "220" H 4720 4905 50  0000 L CNN
F 2 "" V 4580 4950 50  0001 C CNN
F 3 "~" H 4650 4950 50  0001 C CNN
	1    4650 4950
	1    0    0    -1  
$EndComp
Wire Wire Line
	3750 4700 3550 4700
Wire Wire Line
	3750 5650 3550 5650
Wire Wire Line
	3550 3750 3750 3750
$Comp
L Device:R R20
U 1 1 5F8443E5
P 3150 2700
F 0 "R20" H 3220 2746 50  0000 L CNN
F 1 "220" H 3220 2655 50  0000 L CNN
F 2 "" V 3080 2700 50  0001 C CNN
F 3 "~" H 3150 2700 50  0001 C CNN
	1    3150 2700
	1    0    0    -1  
$EndComp
Wire Wire Line
	3150 2550 3150 2450
Connection ~ 2750 4250
Wire Wire Line
	2750 4250 2750 5200
Connection ~ 2750 5200
Wire Wire Line
	2750 5200 2750 6150
Wire Wire Line
	2750 5200 3150 5200
Wire Wire Line
	3650 1650 3650 2250
Wire Wire Line
	3650 5450 3750 5450
Wire Wire Line
	3750 4500 3650 4500
Connection ~ 3650 4500
Wire Wire Line
	3650 4500 3650 5450
Wire Wire Line
	3750 3550 3650 3550
Connection ~ 3650 3550
Wire Wire Line
	3650 3550 3650 4500
Wire Wire Line
	4650 6150 6150 6150
Connection ~ 4650 6150
Connection ~ 6150 6150
Wire Wire Line
	5750 5100 5600 5100
Wire Wire Line
	5600 5100 5600 5650
Wire Wire Line
	5600 5650 4650 5650
Wire Wire Line
	6150 5500 6150 6150
Connection ~ 4650 5650
Wire Wire Line
	5600 3100 5600 4800
Wire Wire Line
	5600 4800 5750 4800
Wire Wire Line
	4650 5650 4650 5750
Wire Wire Line
	5750 4900 5500 4900
Wire Wire Line
	5500 4900 5500 3750
Wire Wire Line
	5500 3750 4650 3750
Connection ~ 4650 3750
Wire Wire Line
	4650 4700 5400 4700
Wire Wire Line
	5400 4700 5400 5000
Wire Wire Line
	5400 5000 5750 5000
Connection ~ 4650 4700
Wire Wire Line
	3150 2850 3150 3000
$Comp
L Device:CP C4
U 1 1 5F877EBE
P 3050 1900
F 0 "C4" H 3168 1946 50  0000 L CNN
F 1 "100uF 16V" H 3168 1855 50  0000 L CNN
F 2 "" H 3088 1750 50  0001 C CNN
F 3 "~" H 3050 1900 50  0001 C CNN
	1    3050 1900
	1    0    0    -1  
$EndComp
$Comp
L Device:C C3
U 1 1 5F877EC4
P 2600 1900
F 0 "C3" H 2715 1946 50  0000 L CNN
F 1 "1.0" H 2715 1855 50  0000 L CNN
F 2 "" H 2638 1750 50  0001 C CNN
F 3 "~" H 2600 1900 50  0001 C CNN
	1    2600 1900
	1    0    0    -1  
$EndComp
Wire Wire Line
	2600 1650 2600 1750
Wire Wire Line
	2600 2050 2600 2150
Wire Wire Line
	3050 1750 3050 1650
Wire Wire Line
	3750 2250 3650 2250
Connection ~ 3650 2250
Wire Wire Line
	3650 2250 3650 3550
Connection ~ 2600 1650
Wire Wire Line
	2600 1650 3050 1650
Connection ~ 3050 1650
Wire Wire Line
	3050 1650 3650 1650
Wire Wire Line
	2750 3000 3150 3000
Wire Wire Line
	2750 3000 2750 4250
Connection ~ 3150 2450
Wire Wire Line
	3150 2450 3750 2450
Wire Wire Line
	2100 2450 3150 2450
Wire Wire Line
	2750 3000 2750 2150
Wire Wire Line
	2750 2150 2600 2150
Connection ~ 2750 3000
Connection ~ 2600 2150
Wire Wire Line
	2600 2150 2100 2150
Wire Wire Line
	2750 2150 3050 2150
Wire Wire Line
	3050 2050 3050 2150
Connection ~ 2750 2150
$Comp
L Device:C C5
U 1 1 5F89E9FE
P 4050 6150
F 0 "C5" V 3798 6150 50  0000 C CNN
F 1 "0.1 1kV" V 3889 6150 50  0000 C CNN
F 2 "" H 4088 6000 50  0001 C CNN
F 3 "~" H 4050 6150 50  0001 C CNN
	1    4050 6150
	0    1    1    0   
$EndComp
Wire Wire Line
	3150 6150 3900 6150
Connection ~ 3150 6150
Wire Wire Line
	4200 6150 4500 6150
Connection ~ 4500 6150
$Comp
L Device:R R29
U 1 1 5F8BB447
P 5250 2850
F 0 "R29" H 5320 2896 50  0000 L CNN
F 1 "4k7" H 5320 2805 50  0000 L CNN
F 2 "" V 5180 2850 50  0001 C CNN
F 3 "~" H 5250 2850 50  0001 C CNN
	1    5250 2850
	1    0    0    -1  
$EndComp
Wire Wire Line
	5250 3100 5250 3000
Wire Wire Line
	5250 2700 5250 2250
Connection ~ 5250 3100
Wire Wire Line
	5250 3100 5600 3100
Connection ~ 5250 2250
Wire Wire Line
	5250 2250 5850 2250
$Comp
L Connector:6P6C J3
U 1 1 5F8BF6F5
P 9700 5650
F 0 "J3" H 9370 5654 50  0000 R CNN
F 1 "6P6C" H 9370 5745 50  0000 R CNN
F 2 "" V 9700 5675 50  0001 C CNN
F 3 "~" V 9700 5675 50  0001 C CNN
	1    9700 5650
	-1   0    0    1   
$EndComp
Wire Wire Line
	9300 4700 9100 4700
Wire Wire Line
	9100 4700 9100 5450
Wire Wire Line
	9100 5450 9300 5450
Wire Wire Line
	9300 4800 9000 4800
Wire Wire Line
	9000 5550 9300 5550
Wire Wire Line
	9300 4900 8900 4900
Wire Wire Line
	8900 4900 8900 5650
Wire Wire Line
	8900 5650 9300 5650
Wire Wire Line
	9300 5000 8800 5000
Wire Wire Line
	8800 5000 8800 5750
Wire Wire Line
	8800 5750 9300 5750
Wire Wire Line
	9300 5100 9000 5100
Wire Wire Line
	9300 5200 8700 5200
Wire Wire Line
	8700 5200 8700 5950
Wire Wire Line
	8700 5950 9300 5950
$Comp
L Device:R R30
U 1 1 5F8EB98D
P 8300 4850
F 0 "R30" H 8370 4896 50  0000 L CNN
F 1 "120" H 8370 4805 50  0000 L CNN
F 2 "" V 8230 4850 50  0001 C CNN
F 3 "~" H 8300 4850 50  0001 C CNN
	1    8300 4850
	1    0    0    -1  
$EndComp
Wire Wire Line
	6850 3950 6850 4050
Wire Wire Line
	6650 5100 6550 5100
Connection ~ 8900 4900
Wire Wire Line
	6550 4800 6550 5000
Connection ~ 8800 5000
Wire Wire Line
	8900 4700 8900 4900
Wire Wire Line
	6650 4700 6650 5100
Wire Wire Line
	9000 4800 9000 5100
Connection ~ 9000 5100
Wire Wire Line
	9000 5100 9000 5550
Wire Wire Line
	9000 5850 9300 5850
Connection ~ 9000 5550
Wire Wire Line
	9000 5550 9000 5850
Wire Wire Line
	9000 6150 9000 5850
Connection ~ 9000 5850
Wire Wire Line
	8350 3550 9100 3550
Wire Wire Line
	9100 3550 9100 4700
Connection ~ 9100 4700
$Comp
L Device:Fuse F1
U 1 1 5F9408F6
P 8000 4700
F 0 "F1" V 7803 4700 50  0000 C CNN
F 1 "250 mA" V 7894 4700 50  0000 C CNN
F 2 "" V 7930 4700 50  0001 C CNN
F 3 "~" H 8000 4700 50  0001 C CNN
	1    8000 4700
	0    1    1    0   
$EndComp
Wire Wire Line
	8150 4700 8300 4700
$Comp
L Device:Fuse F2
U 1 1 5F945D17
P 8000 5000
F 0 "F2" V 7803 5000 50  0000 C CNN
F 1 "250 mA" V 7894 5000 50  0000 C CNN
F 2 "" V 7930 5000 50  0001 C CNN
F 3 "~" H 8000 5000 50  0001 C CNN
	1    8000 5000
	0    1    1    0   
$EndComp
Wire Wire Line
	8150 5000 8300 5000
$Comp
L Diode:1.5KExxCA D3
U 1 1 5F950CFB
P 7000 5300
F 0 "D3" V 6954 5379 50  0000 L CNN
F 1 "1.5KE6V8CA" V 7045 5379 50  0000 L CNN
F 2 "Diode_THT:D_DO-201AE_P15.24mm_Horizontal" H 7000 5100 50  0001 C CNN
F 3 "https://www.vishay.com/docs/88301/15ke.pdf" H 7000 5300 50  0001 C CNN
	1    7000 5300
	0    1    1    0   
$EndComp
$Comp
L Diode:1.5KExxCA D4
U 1 1 5F950E57
P 7600 5300
F 0 "D4" V 7554 5379 50  0000 L CNN
F 1 "1.5KE6V8CA" V 7645 5379 50  0000 L CNN
F 2 "Diode_THT:D_DO-201AE_P15.24mm_Horizontal" H 7600 5100 50  0001 C CNN
F 3 "https://www.vishay.com/docs/88301/15ke.pdf" H 7600 5300 50  0001 C CNN
	1    7600 5300
	0    1    1    0   
$EndComp
Wire Wire Line
	7000 4700 7000 5150
Wire Wire Line
	7000 5450 7000 6150
Connection ~ 7000 4700
Wire Wire Line
	7000 4700 7850 4700
Connection ~ 7000 6150
Wire Wire Line
	7600 5000 7600 5150
Wire Wire Line
	7000 6150 7600 6150
Wire Wire Line
	7600 5450 7600 6150
Connection ~ 7600 5000
Wire Wire Line
	7600 5000 7850 5000
Connection ~ 7600 6150
Wire Wire Line
	7600 6150 9000 6150
Connection ~ 8300 4700
Wire Wire Line
	8300 4700 8900 4700
Connection ~ 8300 5000
Wire Wire Line
	8300 5000 8800 5000
Wire Wire Line
	6550 5000 7600 5000
Wire Wire Line
	6650 4700 7000 4700
Wire Wire Line
	6850 4050 7300 4050
Wire Wire Line
	6150 6150 6750 6150
Wire Wire Line
	6850 4050 6750 4050
Wire Wire Line
	6750 4050 6750 6150
Connection ~ 6850 4050
Connection ~ 6750 6150
Wire Wire Line
	6750 6150 7000 6150
Text HLabel 2100 1650 0    50   UnSpc ~ 0
+5VD
Text HLabel 2100 2150 0    50   UnSpc ~ 0
DGND
Text HLabel 2100 2450 0    50   Output ~ 0
RO
Text HLabel 2100 4050 0    50   Input ~ 0
nRE
Text HLabel 2100 5000 0    50   Input ~ 0
DE
Text HLabel 2100 5950 0    50   Input ~ 0
DI
$EndSCHEMATC
